Division,WeightClassKg,Place,Name,Team,BodyweightKg,Best3SquatKg,Best3BenchKg,Best3DeadliftKg,TotalKg,Equipment,Event,Sex,BirthDate
Girls,44.23,1,Mylei Donahue,Kyle Lehman,43.64,102.06,43.09,106.59,251.74,Unlimited,SBD,F,
Girls,44.23,2,Shaelyn Goode,Little River Academy,42.82,61.23,38.56,74.84,174.63,Unlimited,SBD,F,
Girls,44.23,3,Grace Hernandez,San Marcos,41.19,61.23,34.02,77.11,172.37,Unlimited,SBD,F,
Girls,44.23,4,Delilah Del Toro,Buda Johnson,40.19,45.36,34.02,79.38,158.76,Unlimited,SBD,F,
Girls,44.23,5,Amariah Mendoza,Manor,37.19,52.16,29.48,43.09,124.74,Unlimited,SBD,F,
Girls,44.23,DQ,Leslie Aldope,Manor,41.37,65.77,34.02,74.84,,Unlimited,SBD,F,
Girls,44.23,DQ,June Escobedo,Universal City Randolph,36.92,40.82,,,,Unlimited,SBD,F,
Girls,47.85,1,Evalyn Velasquez,Buda Johnson,47.54,95.25,47.63,113.4,256.28,Unlimited,SBD,F,
Girls,47.85,2,Nora Rodriguez,Del Valle,46.9,86.18,34.02,90.72,210.92,Unlimited,SBD,F,
Girls,47.85,3,Mykena Eary,Little River Academy,47.85,72.57,47.63,79.38,199.58,Unlimited,SBD,F,
Girls,47.85,4,Emma Farrell,Floresville,45.63,58.97,43.09,79.38,181.44,Unlimited,SBD,F,
Girls,47.85,5,Hadley Shell,Buda Johnson,46.81,49.9,31.75,68.04,149.69,Unlimited,SBD,F,
Girls,51.94,1,Lola Williams,Kyle Lehman,51.8,142.88,58.97,124.74,326.59,Unlimited,SBD,F,
Girls,51.94,2,Madison Buchhorn,Little River Academy,50.62,97.52,56.7,120.2,274.42,Unlimited,SBD,F,
Girls,51.94,3,Jayla Caldera,Universal City Randolph,50.62,108.86,56.7,108.86,274.42,Unlimited,SBD,F,
Girls,51.94,4,Amelia Herrera,Floresville,50.8,95.25,47.63,97.52,240.4,Unlimited,SBD,F,
Girls,51.94,5,Marie Donahue,Kyle Lehman,50.71,86.18,40.82,97.52,224.53,Unlimited,SBD,F,
Girls,51.94,6,Karli Perez,Floresville,50.53,88.45,43.09,90.72,222.26,Unlimited,SBD,F,
Girls,51.94,7,Kenzi Jarrett,Killeen Harker Heights,50.62,72.57,68.04,81.65,222.26,Unlimited,SBD,F,
Girls,51.94,8,Shelby Poynor,Buda Johnson,50.62,81.65,43.09,88.45,213.19,Unlimited,SBD,F,
Girls,51.94,9,Jada Raymond,Del Valle,50.35,72.57,47.63,88.45,208.65,Unlimited,SBD,F,
Girls,51.94,10,Megan Arispe,Del Valle,47.99,72.57,47.63,83.91,204.12,Unlimited,SBD,F,
Girls,51.94,11,April Landruilt,Del Valle,50.44,74.84,40.82,72.57,188.24,Unlimited,SBD,F,
Girls,56.02,1,Katelyn Padalecki,Floresville,55.52,147.42,77.11,122.47,347,Unlimited,SBD,F,
Girls,56.02,2,Destynee Sourignavong,Universal City Randolph,55.79,95.25,65.77,120.2,281.23,Unlimited,SBD,F,
Girls,56.02,3,Zoey Ontiveros,Little River Academy,55.07,108.86,52.16,115.67,276.69,Unlimited,SBD,F,
Girls,56.02,4,Eveyln De Leon,Del Valle,54.43,99.79,52.16,111.13,263.08,Unlimited,SBD,F,
Girls,56.02,5,Mikaela Ibarra,San Marcos,54.98,99.79,49.9,113.4,263.08,Unlimited,SBD,F,
Girls,56.02,6,Kirsten Newman,Floresville,54.88,97.52,49.9,113.4,260.82,Unlimited,SBD,F,
Girls,56.02,7,Jacey Nieves,Little River Academy,53.34,83.91,47.63,95.25,226.8,Unlimited,SBD,F,
Girls,56.02,8,Nastasja Ladden,Buda Johnson,53.8,68.04,40.82,81.65,190.51,Unlimited,SBD,F,
Girls,56.02,9,Rozette Silvas,Buda Johnson,53.16,77.11,34.02,72.57,183.7,Unlimited,SBD,F,
Girls,56.02,10,Ava Taylor,Killeen Harker Heights,54.61,54.43,45.36,79.38,179.17,Unlimited,SBD,F,
Girls,56.02,11,Lilly Godoy,Universal City Randolph,52.71,56.7,31.75,77.11,165.56,Unlimited,SBD,F,
Girls,56.02,12,Kromer Amanda,Austin Anderson,52.25,56.7,34.02,70.31,161.03,Unlimited,SBD,F,
Girls,56.02,DQ,Emery Cisneros,San Marcos,52.89,,,,,Unlimited,SBD,F,
Girls,60.1,1,Rosie Driscoll,Del Valle,58.15,124.74,86.18,129.27,340.19,Unlimited,SBD,F,
Girls,60.1,2,Hailey Hinojosa,Buda Johnson,58.79,104.33,56.7,104.33,265.35,Unlimited,SBD,F,
Girls,60.1,3,Emily Estrada,Manor,59.96,92.99,52.16,113.4,258.55,Unlimited,SBD,F,
Girls,60.1,4,Way Paw,Manor,59.33,104.33,47.63,83.91,235.87,Unlimited,SBD,F,
Girls,60.1,5,Rylee Bethune,Killeen Harker Heights,59.15,70.31,43.09,83.91,197.31,Unlimited,SBD,F,
Girls,60.1,DQ,Haidyn Stewart,Buda Johnson,59.6,,58.97,99.79,,Unlimited,SBD,F,
Girls,60.1,DQ,Carson Lynch,Austin Anderson,59.33,,,79.38,,Unlimited,SBD,F,
Girls,67.36,1,Leila Gomez,Kyle Lehman,60.33,176.9,74.84,145.15,396.89,Unlimited,SBD,F,
Girls,67.36,2,Kamryn Louk,Buda Johnson,65.32,158.76,95.25,142.88,396.89,Unlimited,SBD,F,
Girls,67.36,3,Aaliyah Respress,Kyle Lehman,62.51,151.95,74.84,142.88,369.68,Unlimited,SBD,F,
Girls,67.36,4,Elena Merced,Floresville,66.13,136.08,58.97,145.15,340.19,Unlimited,SBD,F,
Girls,67.36,5,Sky LaRae Cuevas,Floresville,65.59,136.08,70.31,127.01,333.39,Unlimited,SBD,F,
Girls,67.36,6,Lily Hood,Buda Johnson,66.32,124.74,70.31,136.08,331.12,Unlimited,SBD,F,
Girls,67.36,7,Lily Ramirez,Kyle Lehman,64.68,145.15,61.23,102.06,308.44,Unlimited,SBD,F,
Girls,67.36,8,Natalie Hinojosa,Buda Johnson,64.86,113.4,58.97,127.01,299.37,Unlimited,SBD,F,
Girls,67.36,9,Isabel Martinez,Little River Academy,65.95,120.2,58.97,113.4,292.57,Unlimited,SBD,F,
Girls,67.36,10,Lizbeth Lopez,Del Valle,64.41,115.67,54.43,117.93,288.03,Unlimited,SBD,F,
Girls,67.36,11,Nyla Kelly,Del Valle,66.5,111.13,65.77,108.86,285.76,Unlimited,SBD,F,
Girls,67.36,12,Destiny New,Buda Johnson,66.41,104.33,63.5,113.4,281.23,Unlimited,SBD,F,
Girls,67.36,13,Aisha Brown,Killeen Ellison,66.41,90.72,43.09,129.27,263.08,Unlimited,SBD,F,
Girls,67.36,14,Emi Hoshino,Del Valle,63.96,97.52,52.16,106.59,256.28,Unlimited,SBD,F,
Girls,67.36,15,Aubrey Perez,San Marcos,66.32,90.72,49.9,111.13,251.74,Unlimited,SBD,F,
Girls,67.36,16,Tamaya Mercer,Manor,65.41,97.52,45.36,102.06,244.94,Unlimited,SBD,F,
Girls,67.36,17,Dani Leal,Manor,67.31,90.72,45.36,102.06,238.14,Unlimited,SBD,F,
Girls,67.36,18,Anaya Bynum,Buda Johnson,62.87,90.72,45.36,99.79,235.87,Unlimited,SBD,F,
Girls,67.36,19,Natalia Arjon,Little River Academy,64.95,102.06,54.43,79.38,235.87,Unlimited,SBD,F,
Girls,67.36,20,Melissa Rodriguez,Del Valle,62.6,92.99,45.36,86.18,224.53,Unlimited,SBD,F,
Girls,67.36,21,Malia Eagly,Buda Johnson,60.96,79.38,45.36,88.45,213.19,Unlimited,SBD,F,
Girls,67.36,22,Audrey Armatta,Buda Johnson,65.32,72.57,45.36,83.91,201.85,Unlimited,SBD,F,
Girls,67.36,23,Lillian Murawski,Universal City Randolph,65.5,72.57,36.29,86.18,195.04,Unlimited,SBD,F,
Girls,67.36,DQ,Yoali Soto,San Marcos,65.41,104.33,68.04,,,Unlimited,SBD,F,
Girls,67.36,DQ,Yinneiska Cosme,Killeen Ellison,65.32,,,,,Unlimited,SBD,F,
Girls,75.07,1,Jocelyne Jaimes,Kyle Lehman,69.22,165.56,70.31,133.81,369.68,Unlimited,SBD,F,
Girls,75.07,2,Eve Jakubauskas,Buda Johnson,71.12,136.08,79.38,136.08,351.53,Unlimited,SBD,F,
Girls,75.07,3,Elena Schock,Austin Anderson,67.95,111.13,70.31,154.22,335.66,Unlimited,SBD,F,
Girls,75.07,4,Kyia Miller,Kyle Lehman,69.04,151.95,70.31,113.4,335.66,Unlimited,SBD,F,
Girls,75.07,5,Kambri Angle,Floresville,72.67,129.27,61.23,142.88,333.39,Unlimited,SBD,F,
Girls,75.07,6,Autumn Turner,Universal City Randolph,72.03,124.74,81.65,120.2,326.59,Unlimited,SBD,F,
Girls,75.07,7,Brooke Lonsdale,Austin Anderson,71.4,102.06,58.97,117.93,278.96,Unlimited,SBD,F,
Girls,75.07,8,Misha Brownlee,Killeen Harker Heights,74.93,92.99,58.97,127.01,278.96,Unlimited,SBD,F,
Girls,75.07,9,Ellyssa Hanks,Killeen Harker Heights,71.03,88.45,70.31,102.06,260.82,Unlimited,SBD,F,
Girls,75.07,10,Rosemary Jamison,Buda Johnson,71.94,90.72,54.43,111.13,256.28,Unlimited,SBD,F,
Girls,75.07,11,Emily Nieves,Manor,70.13,90.72,45.36,83.91,219.99,Unlimited,SBD,F,
Girls,75.07,12,Jasmine Morales #2,Killeen Harker Heights,73.94,70.31,49.9,90.72,210.92,Unlimited,SBD,F,
Girls,75.07,13,Abegail McMillan,Universal City Randolph,70.31,83.91,45.36,77.11,206.38,Unlimited,SBD,F,
Girls,75.07,14,Giavanni Martinez,Universal City Randolph,72.67,74.84,52.16,74.84,201.85,Unlimited,SBD,F,
Girls,75.07,DQ,Zoey Morales,Manor,74.84,,,,,Unlimited,SBD,F,
Girls,75.07,DQ,Natalia Belyeu,Kyle Lehman,67.68,,,,,Unlimited,SBD,F,
Girls,82.33,1,Olivia Montoya,Kyle Lehman,76.29,165.56,70.31,147.42,383.29,Unlimited,SBD,F,
Girls,82.33,2,Isabella Garza,Buda Johnson,76.2,131.54,72.57,133.81,337.93,Unlimited,SBD,F,
Girls,82.33,3,Jessica DeLeon,San Marcos,82.1,117.93,56.7,136.08,310.71,Unlimited,SBD,F,
Girls,82.33,4,Madyson McDonald,Universal City Randolph,81.37,99.79,56.7,102.06,258.55,Unlimited,SBD,F,
Girls,82.33,5,Rebeckah Kornacki,Del Valle,79.2,102.06,61.23,92.99,256.28,Unlimited,SBD,F,
Girls,82.33,6,Gabriellle Guevara,Killeen Harker Heights,75.57,61.23,52.16,90.72,204.12,Unlimited,SBD,F,
Girls,82.33,DQ,Khloe Kundy,Universal City Randolph,82.1,,,,,Unlimited,SBD,F,
Girls,82.33,DQ,Jalyn Roundtree,Universal City Randolph,81.47,,,,,Unlimited,SBD,F,
Girls,90.04,1,Elena Guevara,Kyle Lehman,85.91,124.74,72.57,138.35,335.66,Unlimited,SBD,F,
Girls,90.04,2,Natalia Lara-Valdez,Del Valle,88.18,102.06,58.97,115.67,276.69,Unlimited,SBD,F,
Girls,90.04,3,Leezett Rodriguez,Manor,83.28,113.4,43.09,102.06,258.55,Unlimited,SBD,F,
Girls,90.04,4,Mercedes Anderson,Killeen Harker Heights,84.19,83.91,61.23,106.59,251.74,Unlimited,SBD,F,
Girls,90.04,DQ,Izabelle Schultz,Universal City Randolph,89.81,63.5,,,,Unlimited,SBD,F,
Girls,100.02,1,Crystal Martinez,Kyle Lehman,97.89,229.06,138.35,192.78,560.19,Unlimited,SBD,F,
Girls,100.02,2,Gabrielle Honesto,Floresville,99.88,136.08,74.84,129.27,340.19,Unlimited,SBD,F,
Girls,100.02,3,Gabriella Contreras,Floresville,96.34,131.54,77.11,120.2,328.85,Unlimited,SBD,F,
Girls,100.02,4,Avery Leatherman,Buda Johnson,98.61,104.33,74.84,117.93,297.1,Unlimited,SBD,F,
Girls,100.02,5,Ava Thomann,Buda Johnson,95.35,95.25,61.23,99.79,256.28,Unlimited,SBD,F,
Girls,100.02,DQ,Shayra Davis,Little River Academy,98.34,142.88,79.38,,,Unlimited,SBD,F,
Girls,110,1,Ashley Grande,Buda Johnson,106.41,231.33,115.67,183.7,530.7,Unlimited,SBD,F,
Girls,110,2,Jazlynn Sifuentes,Buda Johnson,107.5,90.72,43.09,104.33,238.14,Unlimited,SBD,F,
Girls,110,3,Kyra Moseley,Killeen Ellison,105.46,115.67,29.48,79.38,224.53,Unlimited,SBD,F,
Girls,110,DQ,Joanna Mata,Buda Johnson,109.41,97.52,54.43,,,Unlimited,SBD,F,
Girls,110+,1,Ashley Mucino,Manor,131,147.42,81.65,140.61,369.68,Unlimited,SBD,F,
Girls,110+,2,Emma Harrison,Little River Academy,130.09,142.88,90.72,133.81,367.41,Unlimited,SBD,F,
Girls,110+,3,Kleopatra Sele,Floresville,116.75,145.15,77.11,127.01,349.27,Unlimited,SBD,F,
Girls,110+,4,Paola Martinez,Floresville,154.4,138.35,68.04,115.67,322.05,Unlimited,SBD,F,
Girls,110+,5,Jada Navarro,Austin Anderson,113.49,131.54,54.43,129.27,315.25,Unlimited,SBD,F,
Girls,110+,6,Jaclyn Taft,Killeen Harker Heights,119.84,111.13,70.31,106.59,288.03,Unlimited,SBD,F,
