Division,WeightClassKg,Place,Name,Team,BodyweightKg,Best3SquatKg,Best3BenchKg,Best3DeadliftKg,TotalKg,Equipment,Event,Sex
Boys,55.79,1,Randy Soliz,Hebbronville,51.75,188.24,97.52,201.85,487.61,Single-ply,SBD,M
Boys,51.71,2,Robert Gonzalez,Laredo Cigarroa,50.62,145.15,77.11,156.49,378.75,Single-ply,SBD,M
Boys,51.71,3,Ramiro Trevino,Laredo Nixon,48.17,90.72,54.43,115.67,260.82,Single-ply,SBD,M
Boys,51.71,DQ,Billy Rojas,Ben Bolt-Palito Blanco,50.44,,,,,Single-ply,SBD,M
Boys,51.71,DQ,Christian Alaniz,Ben Bolt-Palito Blanco,44.63,86.18,,,,Single-ply,SBD,M
Boys,55.79,1,Jesus Trevino,Zapata,55.79,163.29,92.99,181.44,437.72,Single-ply,SBD,M
Boys,55.79,2,Richard Saenz,Hebbronville,55.79,183.7,83.91,170.1,437.72,Single-ply,SBD,M
Boys,55.79,DQ,Marcus Schuessler,Freer,55.79,,,,,Single-ply,SBD,M
Boys,59.87,1,Artemio Garcia,Zapata,59.42,201.85,124.74,213.19,539.77,Single-ply,SBD,M
Boys,67.13,2,Sergio Marin,Freer,60.06,124.74,83.91,145.15,353.8,Single-ply,SBD,M
Boys,59.87,3,Jonathan Vedia,Bruni,58.97,113.4,77.11,136.08,326.59,Single-ply,SBD,M
Boys,59.87,DQ,Maclovio Gomez,Zapata,59.87,,,,,Single-ply,SBD,M
Boys,59.87,DQ,Joe Torres #7,Laredo Nixon,59.87,,,,,Single-ply,SBD,M
Boys,67.13,1,Jonathan Pena,Laredo United South,67.13,242.67,145.15,222.26,610.08,Single-ply,SBD,M
Boys,67.13,2,Josue Tobias,Laredo Nixon,64.77,201.85,102.06,213.19,517.1,Single-ply,SBD,M
Boys,67.13,3,Estevan Galvan,Freer,61.05,174.63,120.2,215.46,510.29,Single-ply,SBD,M
Boys,67.13,4,Dmitri Flores,Falfurrias,65.86,185.97,104.33,195.04,485.34,Single-ply,SBD,M
Boys,67.13,5,Nathaniel McRae,Hebbronville,66.13,165.56,90.72,195.04,451.32,Single-ply,SBD,M
Boys,67.13,6,Reno Saenz,Hebbronville,65.32,165.56,88.45,165.56,419.57,Single-ply,SBD,M
Boys,67.13,7,Cordell Mueler,Bruni,64.68,145.15,81.65,142.88,369.68,Single-ply,SBD,M
Boys,67.13,8,Ramiro Gonzalez,Falfurrias,63.23,113.4,90.72,149.69,353.8,Single-ply,SBD,M
Boys,67.13,DQ,Isaac Ramos,Bruni,66.22,,,,,Single-ply,SBD,M
Boys,67.13,DQ,JJ Ramirez,Bruni,65.14,142.88,95.25,,,Single-ply,SBD,M
Boys,67.13,DQ,David Rojas,Ben Bolt-Palito Blanco,67.13,,,,,Single-ply,SBD,M
Boys,67.13,DQ,Candelario Segura,Ben Bolt-Palito Blanco,67.13,,,,,Single-ply,SBD,M
Boys,67.13,DQ,Dorian Canales,Freer,67.13,,,,,Single-ply,SBD,M
Boys,67.13,DQ,Arin Saenz,Freer,67.13,,,,,Single-ply,SBD,M
Boys,67.13,DQ,Hector Garnica,Laredo United South,67.13,,,,,Single-ply,SBD,M
Boys,67.13,DQ,Marvin Martinez,Laredo United South,67.13,,,,,Single-ply,SBD,M
Boys,74.84,1,Aaron Serrato,Freer,71.03,213.19,145.15,229.06,587.4,Single-ply,SBD,M
Boys,82.1,2,Yahir Garcia,Laredo United South,75.02,199.58,127.01,224.53,551.11,Single-ply,SBD,M
Boys,74.84,3,Rene Ruiz,Hebbronville,74.84,170.1,120.2,195.04,485.34,Single-ply,SBD,M
Boys,74.84,4,Freddy Carpentier,Hebbronville,71.67,167.83,113.4,172.37,453.59,Single-ply,SBD,M
Boys,74.84,5,Jacob Munoz,Falfurrias,68.04,129.27,74.84,145.15,349.27,Single-ply,SBD,M
Boys,74.84,6,Joel Salinas,Falfurrias,73.39,102.06,74.84,147.42,324.32,Single-ply,SBD,M
Boys,74.84,DQ,Hector Villarreal,Laredo United South,72.85,,,,,Single-ply,SBD,M
Boys,74.84,DQ,Rene Cabrerra,Laredo Cigarroa,74.84,,,,,Single-ply,SBD,M
Boys,74.84,DQ,Ramon Huerta,Falfurrias,74.84,,,,,Single-ply,SBD,M
Boys,74.84,DQ,Oscar Perez #5,Ben Bolt-Palito Blanco,74.84,,,,,Single-ply,SBD,M
Boys,74.84,DQ,Jesus Martinez,Freer,74.84,,,,,Single-ply,SBD,M
Boys,89.81,1,Arnold Sauceda,Hebbronville,82.19,251.74,161.03,231.33,644.1,Single-ply,SBD,M
Boys,82.1,2,Jacob Garza,Hebbronville,81.19,226.8,127.01,179.17,532.97,Single-ply,SBD,M
Boys,82.1,3,Matthew Guzman,Laredo Nixon,81.19,183.7,113.4,167.83,464.93,Single-ply,SBD,M
Boys,82.1,4,Josh Olivares,Falfurrias,79.56,113.4,92.99,172.37,378.75,Single-ply,SBD,M
Boys,82.1,DQ,Jordan Perez,Laredo United South,82.01,,,,,Single-ply,SBD,M
Boys,82.1,DQ,Robert Vela,Hebbronville,81.92,133.81,77.11,,,Single-ply,SBD,M
Boys,89.81,DQ,Mark Molina,Laredo Cigarroa,82.28,,,,,Single-ply,SBD,M
Boys,82.1,DQ,Chris Nenque,Laredo Nixon,82.1,,,,,Single-ply,SBD,M
Boys,82.1,DQ,Marco Munoz,Laredo Nixon,82.1,92.99,,,,Single-ply,SBD,M
Boys,89.81,1,Andrew Garza,Falfurrias,88.09,240.4,154.22,265.35,659.98,Single-ply,SBD,M
Boys,89.81,2,Albert Salazar,Hebbronville,85.28,208.65,129.27,201.85,539.77,Single-ply,SBD,M
Boys,89.81,3,Rolando De Los Santos,Zapata,89.72,190.51,108.86,192.78,492.15,Single-ply,SBD,M
Boys,89.81,4,Victor Lozano,Laredo Nixon,88,195.04,86.18,179.17,460.4,Single-ply,SBD,M
Boys,89.81,5,Orlando Gomez,Zapata,85.82,174.63,102.06,151.95,428.64,Single-ply,SBD,M
Boys,89.81,DQ,Adrian Castro,Laredo Cigarroa,89.81,,,,,Single-ply,SBD,M
Boys,89.81,DQ,Matthew Felix,La Villa,89.81,,,,,Single-ply,SBD,M
Boys,89.81,DQ,Ramiro Cantu,La Villa,89.81,,,,,Single-ply,SBD,M
Boys,89.81,DQ,Hugo Zamora,Laredo Cigarroa,89.81,,,,,Single-ply,SBD,M
Boys,89.81,DQ,Dylan Hofstetter,Freer,89.81,,,,,Single-ply,SBD,M
Boys,89.81,DQ,Felipe Ruiz,Freer,89.81,,,,,Single-ply,SBD,M
Boys,99.79,1,Marco Banda,Laredo Nixon,98.61,306.17,183.7,256.28,746.16,Single-ply,SBD,M
Boys,99.79,2,Ruben Casas,Falfurrias,98.52,242.67,167.83,206.38,616.89,Single-ply,SBD,M
Boys,99.79,3,Frank Rossi,Hebbronville,96.16,197.31,113.4,210.92,521.63,Single-ply,SBD,M
Boys,99.79,4,Elias Cantu,Hebbronville,93.62,151.95,108.86,183.7,444.52,Single-ply,SBD,M
Boys,99.79,DQ,Michael Almedina,Zapata,98.79,,,,,Single-ply,SBD,M
Boys,99.79,DQ,Franco Arce,Zapata,99.79,,,,,Single-ply,SBD,M
Boys,99.79,DQ,Andruw Espinoza,Freer,99.79,,,,,Single-ply,SBD,M
Boys,109.77,1,Francisco Torrecilla,Laredo Nixon,106.59,244.94,113.4,244.94,603.28,Single-ply,SBD,M
Boys,109.77,2,Robert Vargas,Hebbronville,108.68,233.6,158.76,190.51,582.87,Single-ply,SBD,M
Boys,124.74,3,Jose Marquez,Hebbronville,109.91,235.87,115.67,226.8,578.33,Single-ply,SBD,M
Boys,109.77,4,Jaime Rosas,Falfurrias,108.86,226.8,124.74,217.72,569.26,Single-ply,SBD,M
Boys,109.77,5,Erik Huerta,Laredo United South,109.13,215.46,124.74,183.7,523.9,Single-ply,SBD,M
Boys,124.74,6,Justin Ruiz,Bruni,109.86,226.8,122.47,163.29,512.56,Single-ply,SBD,M
Boys,124.74,7,Eddie Medellin,Laredo Nixon,109.86,167.83,92.99,167.83,428.64,Single-ply,SBD,M
Boys,109.77,DQ,Daniel Vela,Falfurrias,106.68,219.99,120.2,,,Single-ply,SBD,M
Boys,109.77,DQ,Richard Lichtenberger,Freer,109.77,,,,,Single-ply,SBD,M
Boys,124.74,1,Carlos Sanchez,Laredo United South,124.28,317.51,158.76,272.16,748.43,Single-ply,SBD,M
Boys,124.74,2,Hugo Martinez,Zapata,123.83,285.76,138.35,244.94,669.05,Single-ply,SBD,M
Boys,124.74,3,Eric Chapa,Zapata,113.04,226.8,133.81,213.19,573.79,Single-ply,SBD,M
Boys,124.74,4,Oscar Zepeda,Zapata,118.12,206.38,131.54,210.92,548.85,Single-ply,SBD,M
Boys,124.74,5,Don Perez,Falfurrias,117.3,192.78,147.42,204.12,544.31,Single-ply,SBD,M
Boys,124.74,DQ,Ariel Soliz,Ben Bolt-Palito Blanco,124.74,,,,,Single-ply,SBD,M
Boys,124.74,DQ,Alex Charcas,Laredo Cigarroa,114.31,,,,,Single-ply,SBD,M
Boys,124.74+,1,Rudy Flores,Laredo United South,147.15,385.55,244.94,301.64,932.13,Single-ply,SBD,M
Boys,124.74+,2,Eduardo Sanchez,Zapata,149.96,294.84,197.31,254.01,746.16,Single-ply,SBD,M
Boys,124.74+,3,Jose Salvador,Laredo United South,137.71,208.65,156.49,217.72,582.87,Single-ply,SBD,M
Boys,124.74+,DQ,Mario Olivares,Laredo Nixon,125.19,,,,,Single-ply,SBD,M
Boys,124.74+,DQ,Jose Guerrero,La Villa,125.19,,,,,Single-ply,SBD,M
Boys,124.74+,DQ,Manuel González,Ben Bolt-Palito Blanco,125.19,,,,,Single-ply,SBD,M
